

https://answers.yahoo.com/question/index?qid=20090122075623AAwSOLT


2                               ...... 9.81 m/s^2
0,285(=h navmashagent player)   ...... X

x = 1,397925


shotting arrows spped
10 arrows	4.9s		0.49 s intre 2 sageti
10		13s		1.3
10		14s		1.4
10		28s		2.8
10		35s		3.5

https://www.youtube.com/watch?v=2zGnxeSbb3g

https://www.youtube.com/watch?v=rDbqz_07dW4&feature=youtu.be

https://www.youtube.com/watch?v=BEG-ly9tQGk

in minecraft, 50 de metri pana atinge solul, tras de la al 1m si 7 pixeli (1,4375m)

https://www.google.ro/webhp?sourceid=chrome-instant&ion=1&espv=2&ie=UTF-8#q=distance%20shooting%20archery